<svg width="918" height="709" viewBox="0 0 918 709" fill="none" xmlns="http://www.w3.org/2000/svg">
<rect width="918" height="709" rx="150" fill="#24255B"/>
<rect x="686.805" y="139" width="128" height="481.402" rx="64" transform="rotate(45 686.805 139)" fill="url(#paint0_linear_9_16)"/>
<rect x="481.402" y="139" width="128" height="481.402" rx="64" transform="rotate(45 481.402 139)" fill="url(#paint1_linear_9_16)"/>
<rect x="624" y="170" width="128" height="376" rx="64" fill="url(#paint2_linear_9_16)"/>
<defs>
<linearGradient id="paint0_linear_9_16" x1="750.805" y1="139" x2="750.805" y2="620.402" gradientUnits="userSpaceOnUse">
<stop stop-color="#1F94FD"/>
<stop offset="0.5" stop-color="#1E5EFE"/>
<stop offset="1" stop-color="#2032FF"/>
</linearGradient>
<linearGradient id="paint1_linear_9_16" x1="545.402" y1="139" x2="545.402" y2="620.402" gradientUnits="userSpaceOnUse">
<stop offset="0.260417" stop-color="#1F94FD"/>
<stop offset="0.5" stop-color="#1E5EFE"/>
<stop offset="1" stop-color="#2032FF"/>
</linearGradient>
<linearGradient id="paint2_linear_9_16" x1="688" y1="170" x2="688" y2="546" gradientUnits="userSpaceOnUse">
<stop stop-color="#1F94FD" stop-opacity="0.7"/>
<stop offset="1" stop-color="#2032FF"/>
</linearGradient>
</defs>
</svg>
